\relax 
\citation{biros08}
\@writefile{toc}{\contentsline {section}{\numberline {1}Problem 1}{1}}
\@writefile{toc}{\contentsline {section}{\numberline {2}Problem 2}{2}}
\@writefile{loa}{\contentsline {algorithm}{\numberline {1}{\ignorespaces Build Base Quadtree}}{2}}
\@writefile{loa}{\contentsline {algorithm}{\numberline {2}{\ignorespaces Find Coarse Filling Quadrant}}{2}}
\@writefile{loa}{\contentsline {algorithm}{\numberline {3}{\ignorespaces Complete Base QuadTree}}{3}}
\@writefile{loa}{\contentsline {algorithm}{\numberline {4}{\ignorespaces Build Tree and Average in Parallel}}{3}}
\@writefile{loa}{\contentsline {algorithm}{\numberline {5}{\ignorespaces Evaluate for each leaf in Parallel}}{4}}
\@writefile{loa}{\contentsline {algorithm}{\numberline {6}{\ignorespaces Evaluate }}{4}}
\bibcite{biros08}{1}
\@writefile{toc}{\contentsline {section}{\numberline {3}Result}{6}}
\@writefile{lot}{\contentsline {table}{\numberline {1}{\ignorespaces 1 thread}}{6}}
\@writefile{lot}{\contentsline {table}{\numberline {2}{\ignorespaces 2 threads}}{6}}
\@writefile{lot}{\contentsline {table}{\numberline {3}{\ignorespaces 4 threads}}{6}}
\@writefile{lot}{\contentsline {table}{\numberline {4}{\ignorespaces 8 threads}}{6}}
\@writefile{lot}{\contentsline {table}{\numberline {5}{\ignorespaces 16 threads}}{6}}
