TACC: Setting memory limits for job 1911761 to unlimited KB
TACC: Dumping job script:
--------------------------------------------------------------------------------
#!/bin/bash	  
#$ -V	 #Inherit the submission environment
#$ -cwd	 # Start job in submission directory
#$ -N myMPIbsearch	 # Job Name
#$ -j y	 # Combine stderr and stdout
#$ -o $JOB_NAME.o$JOB_ID	 # Name of the output file (eg. myMPI.oJobID)
#$ -pe 12way 24 	 # Requests 12 tasks/node, 24 cores total
#$ -q normal	 # Queue name normal
#$ -l h_rt=00:30:00	 # Run time (hh:mm:ss) - 1.5 hours
#$ -M rzhang@math.utexas.edu	 # Address for email notification
#$ -m bea	 # Email at Begin and End of job
set -x	 # Echo commands, use set echo with csh
export OMP_NUM_THREADS=1
ibrun -n 1 -o 0 ./nbodytest 18
ibrun -n 1 -o 0 ./nbodytest 20
ibrun -n 1 -o 0 ./nbodytest 22
export OMP_NUM_THREADS=2
ibrun -n 1 -o 0 ./nbodytest 18
ibrun -n 1 -o 0 ./nbodytest 20
ibrun -n 1 -o 0 ./nbodytest 22
export OMP_NUM_THREADS=4
ibrun -n 1 -o 0 ./nbodytest 18
ibrun -n 1 -o 0 ./nbodytest 20
ibrun -n 1 -o 0 ./nbodytest 22
export OMP_NUM_THREADS=8
ibrun -n 1 -o 0 ./nbodytest 18
ibrun -n 1 -o 0 ./nbodytest 20
ibrun -n 1 -o 0 ./nbodytest 22
export OMP_NUM_THREADS=16
ibrun -n 1 -o 0 ./nbodytest 18
ibrun -n 1 -o 0 ./nbodytest 20
ibrun -n 1 -o 0 ./nbodytest 22

--------------------------------------------------------------------------------
TACC: Done.
+ export OMP_NUM_THREADS=1
+ OMP_NUM_THREADS=1
+ ibrun -n 1 -o 0 ./nbodytest 18
TACC: Starting up job 1911761
TACC: Setting up parallel environment for MVAPICH ssh-based mpirun.
TACC: Setup complete. Running job script.
TACC: starting parallel tasks...
Run 262144 points for 8.095503
TACC: Shutting down parallel environment.
TACC: Shutdown complete. Exiting.
+ ibrun -n 1 -o 0 ./nbodytest 20
TACC: Starting up job 1911761
TACC: Setting up parallel environment for MVAPICH ssh-based mpirun.
TACC: Setup complete. Running job script.
TACC: starting parallel tasks...
Run 1048576 points for 35.215549
TACC: Shutting down parallel environment.
TACC: Shutdown complete. Exiting.
+ ibrun -n 1 -o 0 ./nbodytest 22
TACC: Starting up job 1911761
TACC: Setting up parallel environment for MVAPICH ssh-based mpirun.
TACC: Setup complete. Running job script.
TACC: starting parallel tasks...
Run 4194304 points for 157.531721
TACC: Shutting down parallel environment.
TACC: Shutdown complete. Exiting.
+ export OMP_NUM_THREADS=2
+ OMP_NUM_THREADS=2
+ ibrun -n 1 -o 0 ./nbodytest 18
TACC: Starting up job 1911761
TACC: Setting up parallel environment for MVAPICH ssh-based mpirun.
TACC: Setup complete. Running job script.
TACC: starting parallel tasks...
Run 262144 points for 4.244589
TACC: Shutting down parallel environment.
TACC: Shutdown complete. Exiting.
+ ibrun -n 1 -o 0 ./nbodytest 20
TACC: Starting up job 1911761
TACC: Setting up parallel environment for MVAPICH ssh-based mpirun.
TACC: Setup complete. Running job script.
TACC: starting parallel tasks...
Run 1048576 points for 18.289918
TACC: Shutting down parallel environment.
TACC: Shutdown complete. Exiting.
+ ibrun -n 1 -o 0 ./nbodytest 22
TACC: Starting up job 1911761
TACC: Setting up parallel environment for MVAPICH ssh-based mpirun.
TACC: Setup complete. Running job script.
TACC: starting parallel tasks...
Run 4194304 points for 81.033551
TACC: Shutting down parallel environment.
TACC: Shutdown complete. Exiting.
+ export OMP_NUM_THREADS=4
+ OMP_NUM_THREADS=4
+ ibrun -n 1 -o 0 ./nbodytest 18
TACC: Starting up job 1911761
TACC: Setting up parallel environment for MVAPICH ssh-based mpirun.
TACC: Setup complete. Running job script.
TACC: starting parallel tasks...
Run 262144 points for 2.368986
TACC: Shutting down parallel environment.
TACC: Shutdown complete. Exiting.
+ ibrun -n 1 -o 0 ./nbodytest 20
TACC: Starting up job 1911761
TACC: Setting up parallel environment for MVAPICH ssh-based mpirun.
TACC: Setup complete. Running job script.
TACC: starting parallel tasks...
Run 1048576 points for 9.636856
TACC: Shutting down parallel environment.
TACC: Shutdown complete. Exiting.
+ ibrun -n 1 -o 0 ./nbodytest 22
TACC: Starting up job 1911761
TACC: Setting up parallel environment for MVAPICH ssh-based mpirun.
TACC: Setup complete. Running job script.
TACC: starting parallel tasks...
Run 4194304 points for 41.957620
TACC: Shutting down parallel environment.
TACC: Shutdown complete. Exiting.
+ export OMP_NUM_THREADS=8
+ OMP_NUM_THREADS=8
+ ibrun -n 1 -o 0 ./nbodytest 18
TACC: Starting up job 1911761
TACC: Setting up parallel environment for MVAPICH ssh-based mpirun.
TACC: Setup complete. Running job script.
TACC: starting parallel tasks...
Run 262144 points for 1.552291
TACC: Shutting down parallel environment.
TACC: Shutdown complete. Exiting.
+ ibrun -n 1 -o 0 ./nbodytest 20
TACC: Starting up job 1911761
TACC: Setting up parallel environment for MVAPICH ssh-based mpirun.
TACC: Setup complete. Running job script.
TACC: starting parallel tasks...
Run 1048576 points for 5.306702
TACC: Shutting down parallel environment.
TACC: Shutdown complete. Exiting.
+ ibrun -n 1 -o 0 ./nbodytest 22
TACC: Starting up job 1911761
TACC: Setting up parallel environment for MVAPICH ssh-based mpirun.
TACC: Setup complete. Running job script.
TACC: starting parallel tasks...
Run 4194304 points for 22.192019
TACC: Shutting down parallel environment.
TACC: Shutdown complete. Exiting.
+ export OMP_NUM_THREADS=16
+ OMP_NUM_THREADS=16
+ ibrun -n 1 -o 0 ./nbodytest 18
TACC: Starting up job 1911761
TACC: Setting up parallel environment for MVAPICH ssh-based mpirun.
TACC: Setup complete. Running job script.
TACC: starting parallel tasks...
Run 262144 points for 1.367345
TACC: Shutting down parallel environment.
TACC: Shutdown complete. Exiting.
+ ibrun -n 1 -o 0 ./nbodytest 20
TACC: Starting up job 1911761
TACC: Setting up parallel environment for MVAPICH ssh-based mpirun.
TACC: Setup complete. Running job script.
TACC: starting parallel tasks...
Run 1048576 points for 4.094864
TACC: Shutting down parallel environment.
TACC: Shutdown complete. Exiting.
+ ibrun -n 1 -o 0 ./nbodytest 22
TACC: Starting up job 1911761
TACC: Setting up parallel environment for MVAPICH ssh-based mpirun.
TACC: Setup complete. Running job script.
TACC: starting parallel tasks...
Run 4194304 points for 16.192922
TACC: Shutting down parallel environment.
TACC: Shutdown complete. Exiting.
TACC: Cleaning up after job: 1911761
TACC: Done.
